%YAML 1.1
%TAG !u! tag:unity3d.com,2011:
--- !u!134 &13400000
PhysicMaterial:
  m_ObjectHideFlags: 0
  m_PrefabParentObject: {fileID: 0}
  m_PrefabInternal: {fileID: 0}
  m_Name: Ball 2
  dynamicFriction: .100000001
  staticFriction: 1
  bounciness: .899999976
  frictionCombine: 3
  bounceCombine: 3
